[gd_scene load_steps=3 format=3 uid="uid://dnkyjwjoratsh"]

[ext_resource type="PackedScene" uid="uid://ykg2im7a73bd" path="res://Scenes/Objects (Scenes)/Unit Player 1.tscn" id="1_mi17i"]
[ext_resource type="Script" path="res://Scripts/Objects (Scripts)/SpawnerUnit.gd" id="2_mjpqb"]

[node name="Spawner Unit Player 1" instance=ExtResource("1_mi17i")]
script = ExtResource("2_mjpqb")
spawnUnitPath = "res://Scenes/Objects (Scenes)/Unit Player 1.tscn"
spawnInterval = 10.0
attackSpeed = 0.0
attackDamage = 0
attackRange = 0
radius = 388.258

[node name="CollisionShape2D" parent="RigidBody2D" index="0"]
scale = Vector2(19.35, 19.35)

[node name="Sprite" parent="RigidBody2D" index="1"]
scale = Vector2(0.218, 0.218)

[node name="Selected Sprite" parent="RigidBody2D" index="2"]
scale = Vector2(1.65, 1.65)

[node name="Hp Sprite" parent="RigidBody2D" index="4"]
scale = Vector2(1.512, 1.512)
metadata/_edit_use_anchors_ = true
